{
    "fluentMethods": true,
    "relationships": [
        {
            "relationshipType": "many-to-one",
            "relationshipName": "user",
            "otherEntityName": "user",
            "otherEntityField": "id"
        },
        {
            "relationshipType": "many-to-one",
            "relationshipName": "tour",
            "otherEntityName": "tour",
            "otherEntityField": "id"
        }
    ],
    "fields": [
        {
            "fieldName": "notificationText",
            "fieldType": "String"
        },
        {
            "fieldName": "actionType",
            "fieldType": "NotificationTypes",
            "fieldValues": "TRANSPORTCHANGE,NOBUSDATA,TACHOMETER"
        }
    ],
    "changelogDate": "20180608051930",
    "entityTableName": "notification",
    "dto": "mapstruct",
    "pagination": "pagination",
    "service": "serviceImpl",
    "jpaMetamodelFiltering": false
}